data-in/GCF_000864925.1_ViralProj15508_genomic.fna.gz	7961	7961	2515
data-in/GCF_000855545.1_ViralProj15003_genomic.fna.gz	15225	15225	4597
data-in/GCF_000853505.1_ViralProj14913_genomic.fna.gz	27317	27317	8145
data-in/GCF_000840245.1_ViralProj14204_genomic.fna.gz	48502	48502	14336
data-in/GCF_000858785.1_ViralProj15143_genomic.fna.gz	121750	121750	35675
data-in/GCF_000893915.1_ViralProj74349_genomic.fna.gz	1259197	1259013	343120
data-in/GCF_000008525.1_ASM852v1_genomic.fna.gz	1667867	1667825	472617
data-in/GCF_000012185.1_ASM1218v1_genomic.fna.gz	1914490	1914490	551752
data-in/GCF_000022125.1_ASM2212v1_genomic.fna.gz	2873437	2873437	827930
data-in/GCF_000193495.1_ASM19349v1_genomic.fna.gz	3577688	3577688	1036413
data-in/GCF_000009045.1_ASM904v1_genomic.fna.gz	4215606	4215606	1219147
data-in/GCF_000005845.2_ASM584v2_genomic.fna.gz	4641652	4641652	1341988
data-in/GCF_000146045.2_R64_genomic.fna.gz	12157105	12157105	3516461
data-in/GCF_000002855.3_ASM285v2_genomic.fna.gz	34006671	33961489	9891929
data-in/GCF_000182925.2_NC12_genomic.fna.gz	41102378	41061603	11839832
data-in/GCF_000002985.6_WBcel235_genomic.fna.gz	100286401	100286401	28053314
data-in/GCF_000224145.2_KH_genomic.fna.gz	115227500	112162838	31493020
data-in/GCF_000001735.3_TAIR10_genomic.fna.gz	119667750	119481543	33736945
data-in/GCF_000005005.1_B73_RefGen_v3_genomic.fna.gz	129968813	129174564	35430230
data-in/GCF_000001215.4_Release_6_plus_ISO1_MT_genomic.fna.gz	143726002	142573024	39582498
data-in/GCF_000151625.1_ASM15162v1_genomic.fna.gz	481819406	431723578	122301394
data-in/GCF_000148765.1_MalDomGD1.0_genomic.fna.gz	799362914	463712188	131187611
data-in/GCF_000002235.4_Spur_4.2_genomic.fna.gz	990915289	902453350	243103422
data-in/GCF_000001405.35_GRCh38.p9_genomic.fna.gz	3238442024	3077073430	849097170
